Chapter10 Unsupervised Learning
…
10.4 Lab 1: Principal Components Analysis

Preparation

Environment

library(dplyr)
library(ggplot2)

data

USArrests %>% as_tibble(rownames = "states")

## # A tibble: 50 x 5
##    states      Murder Assault UrbanPop  Rape
##    <chr>        <dbl>   <int>    <int> <dbl>
##  1 Alabama       13.2     236       58  21.2
##  2 Alaska        10       263       48  44.5
##  3 Arizona        8.1     294       80  31  
##  4 Arkansas       8.8     190       50  19.5
##  5 California     9       276       91  40.6
##  6 Colorado       7.9     204       78  38.7
##  7 Connecticut    3.3     110       77  11.1
##  8 Delaware       5.9     238       72  15.8
##  9 Florida       15.4     335       80  31.9
## 10 Georgia       17.4     211       60  25.8
## # ... with 40 more rows
…
#loading vector
pr.out$rotation[,1]

##     Murder    Assault   UrbanPop       Rape 
## -0.5358995 -0.5831836 -0.2781909 -0.5434321

score

pr.out$x %>% as_tibble(rownames = "states")

## # A tibble: 50 x 5
##    states          PC1     PC2     PC3      PC4
##    <chr>         <dbl>   <dbl>   <dbl>    <dbl>
##  1 Alabama     -0.976   1.12   -0.440   0.155  
##  2 Alaska      -1.93    1.06    2.02   -0.434  
##  3 Arizona     -1.75   -0.738   0.0542 -0.826  
##  4 Arkansas     0.140   1.11    0.113  -0.181  
##  5 California  -2.50   -1.53    0.593  -0.339  
##  6 Colorado    -1.50   -0.978   1.08    0.00145
##  7 Connecticut  1.34   -1.08   -0.637  -0.117  
##  8 Delaware    -0.0472 -0.322  -0.711  -0.873  
##  9 Florida     -2.98    0.0388 -0.571  -0.0953 
## 10 Georgia     -1.62    1.27   -0.339   1.07   
## # ... with 40 more rows
…
